{
  "project_info": {
    "project_number": "547245013180",
    "project_id": "be-my-guest-3",
    "storage_bucket": "be-my-guest-3.appspot.com"
  },
  "client": [
    {
      "client_info": {
        "mobilesdk_app_id": "1:547245013180:android:05f4c518e957f72683f8b9",
        "android_client_info": {
          "package_name": "com.example.be_my_guest"
        }
      },
      "oauth_client": [
        {
          "client_id": "547245013180-ci8pcqvg6r7uruobqklv3jh4uf6cljb6.apps.googleusercontent.com",
          "client_type": 3
        }
      ],
      "api_key": [
        {
          "current_key": "AIzaSyDe369aEXxZIyPxhX5nxIpX_E0uv3E2r94"
        }
      ],
      "services": {
        "appinvite_service": {
          "other_platform_oauth_client": [
            {
              "client_id": "547245013180-ci8pcqvg6r7uruobqklv3jh4uf6cljb6.apps.googleusercontent.com",
              "client_type": 3
            }
          ]
        }
      }
    }
  ],
  "configuration_version": "1"
}